{
  "index": "/index.html",
  "assetGroups": [{
    "name": "app",
    "installMode": "prefetch",
    "resources": {
      "files": [
        "/favicon.ico",
        "/index.html",
        "/*.css",
        "/*.js"
      ]
    }
  }, {
    "name": "assets",
    "installMode": "lazy",
    "updateMode": "prefetch",
    "resources": {
      "files": [
        "/assets/**"
      ]
    }
  }],
  "dataGroups": [
    {
      "name": "api-freshness",
      "urls": [
        "/episode/list",
        "genre/list"
      ],
      "cacheConfig": {
        "maxSize": 100,
        "maxAge": "1h",
        "timeout": "10s",
        "strategy": "freshness"
      }
    },
    {
      "name": "api-performance",
      "urls": [
        "/genre/list",
        "/episode/list"
      ],
      "cacheConfig": {
        "maxSize": 100,
        "maxAge": "1d",
        "strategy": "performance"
      }
    }
  ]
}